{
	"data": [
		{
			"id": "1000",
			"orderId": "f230fh0g3",
			"status":"confirmed",
			"description": "Product Description",
			"image": "bamboo-watch.jpg",
			"price": 65,
			"category":
			[
				{ "name": "Simon" },
				{ "name": "jane" },
				{"name": "george" },
				{"name": "David" }
			],
			"quantity": 24,
			"inventoryStatus": "INSTOCK",
			"rating": 5,
			"orderDate":"12/01/2019 12:00",
			"deptDate":"2019-11-01T18:30:00.000Z",
			"date":{
				"month":5,
				"year":2020,
				"day":13
			}
		},
		
		{
			"id": "1001",
			"orderId": "nvklal433",
			"status":"confirmed",
			"description": "Product Description",
			"image": "black-watch.jpg",
			"price": 72,
			"category":[
				{ "name": "Simon" },
				{ "name": "jane" },
				{"name": "george" },
				{"name": "David" }
			],
			"quantity": 61,
			"inventoryStatus": "INSTOCK",
			"rating": 4,
			"orderDate":"12/01/2019 12:00",
			"deptDate":"2020-01-01T18:30:00.000Z",
			"date":{
				"month":5,
				"year":2020,
				"day":13
			}
		},
		{
			"id": "1002",
			"orderId": "zz21cz3c1",
			"status":"confirmed",
			"description": "Product Description",
			"image": "blue-band.jpg",
			"price": 79,
			"category":[
				{ "name": "Simon" },
				{ "name": "jane" },
				{"name": "george" },
				{"name": "David" }
			],
			"quantity": 2,
			"inventoryStatus": "LOWSTOCK",
			"rating": 3,
			"orderDate":"12/01/2019 12:00",
			"deptDate":"2020-10-01T18:30:00.000Z",
			"date":{
				"month":5,
				"year":2020,
				"day":13
			}
		},
		{
			"id": "1003",
			"orderId": "244wgerg2",
			"status":"confirmed",
			"description": "Product Description",
			"image": "blue-t-shirt.jpg",
			"price": 29,
			"category":[
				{ "name": "Simon" },
				{ "name": "jane" },
				{"name": "george" },
				{"name": "David" }
			],
			"quantity": 25,
			"inventoryStatus": "INSTOCK",
			"rating": 5,
			"orderDate":"12/01/2019 12:00",
			"deptDate":"2019-10-11T18:30:00.000Z",
			"date":{
				"month":5,
				"year":2020,
				"day":13
			}
		},
		{
			"id": "1004",
			"orderId": "h456wer53",
			"status":"cancelled",
			"description": "Product Description",
			"image": "bracelet.jpg",
			"price": 15,
			"category":[
				{ "name": "Simon" },
				{ "name": "jane" },
				{"name": "george" },
				{"name": "David" }
			],
			"quantity": 73,
			"inventoryStatus": "INSTOCK",
			"rating": 4,
			"orderDate":"12/01/2019 12:00",
			"deptDate":"2019-11-01T18:30:00.000Z",
			"date":{
				"month":5,
				"year":2020,
				"day":13
			}
		},
		{
			"id": "1005",
			"orderId": "av2231fwg",
			"status":"confirmed",
			"description": "Product Description",
			"image": "brown-purse.jpg",
			"price": 120,
			"category":[
				{ "name": "Simon" },
				{ "name": "jane" },
				{"name": "george" },
				{"name": "David" }
			],
			"quantity": 0,
			"inventoryStatus": "OUTOFSTOCK",
			"rating": 4,
			"orderDate":"12/01/2019 12:00",
			"deptDate":"2020-06-01T18:30:00.000Z",
			"date":{
				"month":5,
				"year":2020,
				"day":13
			}
		},
		{
			"id": "1006",
			"orderId": "bib36pfvm",
			"status":"confirmed",
			"description": "Product Description",
			"image": "chakra-bracelet.jpg",
			"price": 32,
			"category":[
				{ "name": "Simon" },
				{ "name": "jane" },
				{"name": "george" },
				{"name": "David" }
			],
			"quantity": 5,
			"inventoryStatus": "LOWSTOCK",
			"rating": 3,
			"orderDate":"12/01/2019 12:00",
			"deptDate":"2019-12-01T18:30:00.000Z",
			"date":{
				"month":5,
				"year":2020,
				"day":13
			}
		},
		{
			"id": "1007",
			"orderId": "mbvjkgip5",
			"status":"confirmed",
			"description": "Product Description",
			"image": "galaxy-earrings.jpg",
			"price": 34,
			"category":[
				{ "name": "Simon" },
				{ "name": "jane" },
				{"name": "george" },
				{"name": "David" }
			],
			"quantity": 23,
			"inventoryStatus": "INSTOCK",
			"rating": 5,
			"orderDate":"12/01/2019 12:00",
			"deptDate":"2019-12-15T18:30:00.000Z",
			"date":{
				"month":5,
				"year":2020,
				"day":13
			}
		},
		{
			"id": "1008",
			"orderId": "vbb124btr",
			"status":"confirmed",
			"description": "Product Description",
			"image": "game-controller.jpg",
			"price": 99,
			"category":[
				{ "name": "Simon" },
				{ "name": "jane" },
				{"name": "george" },
				{"name": "David" }
			],
			"quantity": 2,
			"inventoryStatus": "LOWSTOCK",
			"rating": 4,
			"orderDate":"12/01/2019 12:00",
			"deptDate":"2019-11-01T18:30:00.000Z",
			"date":{
				"month":7 ,
				"year":2020,
				"day":13
			}
		},
		{
			"id": "1009",
			"orderId": "cm230f032",
			"status":"cancelled",
			"description": "Product Description",
			"image": "gaming-set.jpg",
			"price": 299,
			"category":[
				{ "name": "Simon" },
				{ "name": "jane" },
				{"name": "george" },
				{"name": "David" }
			],
			"quantity": 63,
			"inventoryStatus": "INSTOCK",
			"rating": 3,
			"orderDate":"12/01/2019 12:00",
			"deptDate":"2020-01-01T18:30:00.000Z",
			"date":{
				"month":5,
				"year":2020,
				"day":13
			}
		}
	]
}